Introduction to rfcip
…
The get_crop_codes function will return the
commodity_code and commodity_name for a supplied year. Note that the
commodity_code and commodity_name can be used
interchangeably as values for the crop argument in
get_sob_data. If there is a crop that is suspected to be an
option, the comm argument can also be specified which will
return just that specified crop if it exists.

# get all crop codes and crop names for 2024
get_crop_codes(2024)
#> # A tibble: 129 × 3
#>    commodity_year commodity_code commodity_name        
#>    <chr>          <chr>          <chr>                 
#>  1 2024           0107           Alfalfa Seed          
#>  2 2024           0211           All Other Citrus Trees
#>  3 2024           0028           Almonds               
#>  4 2024           0332           Annual Forage         
#>  5 2024           1191           Apiculture            
#>  6 2024           0184           Apple Trees           
#>  7 2024           0054           Apples                
#>  8 2024           0212           Avocado Trees         
#>  9 2024           0019           Avocados              
#> 10 2024           0255           Banana                
#> # ℹ 119 more rows
…
The get_insurance_plan_codes function works analogously
to the get_crop_codes function and helps identiy valid
names of insurance plans.

# return all insurance plans avaliable in 2024
get_insurance_plan_codes(year = 2024)
#> # A tibble: 35 × 4
#>    commodity_year insurance_plan_code insurance_plan                                   insurance_plan_abbrv
#>    <chr>          <chr>               <chr>                                            <chr>               
#>  1 2024           90                  APH                                              APH                 
#>  2 2024           91                  APH Price Component                              APHPC               
#>  3 2024           43                  Aquaculture Dollar                               AQDOL               
#>  4 2024           47                  Actual Revenue History                           ARH                 
#>  5 2024           05                  Area Revenue Protection                          ARP                 
#>  6 2024           06                  Area Revenue Protection - Harvest Price Exclusi… ARP - HPE           
#>  7 2024           04                  Area Yield Protection                            AYP                 
#>  8 2024           50                  Dollar Amount Of Insurance                       DO                  
#>  9 2024           83                  Dairy Revenue Protection                         DRP                 
#> 10 2024           88                  Enhanced Cov Opt - Rev Prot                      ECO-RP              
#> # ℹ 25 more rows
…
As was previously stated above, most arguments for the
get_sob_data function are for filtering the returned data.
One exception is the group_by argument which does not
filter the data being returned, but instead alters the level of
aggregation. Taking the above example that returns data for corn in 2022
and setting group_by = "county" will return the same
underlying as above, but decomposed by county.

get_sob_data(year = 2022, crop = "corn", group_by = "county")
#> # A tibble: 2,405 × 27
#>    commodity_year commodity_code commodity_name        state_code state_abbrv county_code county_name      
#>             <dbl>          <int> <chr>                 <chr>      <chr>       <chr>       <chr>            
#>  1           2022           9999 All Other Commodities 01         AL          999         All Other Counti…
#>  2           2022           9999 All Other Commodities 01         AL          007         Bibb             
#>  3           2022           9999 All Other Commodities 01         AL          013         Butler           
#>  4           2022           9999 All Other Commodities 01         AL          023         Choctaw          
#>  5           2022           9999 All Other Commodities 01         AL          025         Clarke           
#>  6           2022           9999 All Other Commodities 01         AL          027         Clay             
#>  7           2022           9999 All Other Commodities 01         AL          029         Cleburne         
#>  8           2022           9999 All Other Commodities 01         AL          057         Fayette          
#>  9           2022           9999 All Other Commodities 01         AL          075         Lamar            
#> 10           2022           9999 All Other Commodities 01         AL          093         Marion           
#> # ℹ 2,395 more rows
#> # ℹ 20 more variables: policies_sold <dbl>, policies_earning_prem <dbl>, policies_indemnified <dbl>,
#> #   units_earning_prem <dbl>, units_indemnified <dbl>, quantity <dbl>, quantity_type <chr>,
#> #   companion_endorsed_acres <dbl>, liabilities <dbl>, total_prem <dbl>, subsidy <dbl>, indemnity <dbl>,
#> #   efa_prem_discount <dbl>, addnl_subsidy <dbl>, state_subsidy <dbl>, pccp_state_matching_amount <dbl>,
#> #   organic_certified_subsidy_amount <dbl>, organic_transitional_subsidy_amount <dbl>,
#> #   earn_prem_rate <dbl>, loss_ratio <dbl>
…
