…
The `get_crop_codes` function will return the commodity_code and commodity_name for a supplied year. Note that the `commodity_code` and `commodity_name` can be used interchangeably as values for the `crop` argument in `get_sob_data`. If there is a crop that is suspected to be an option, the `comm` argument can also be specified which will return just that specified crop if it exists. 

``` r
# get all crop codes and crop names for 2024
get_crop_codes(2024)
#> # A tibble: 129 × 3
#>    commodity_year commodity_code commodity_name        
#>    <chr>          <chr>          <chr>                 
#>  1 2024           0107           Alfalfa Seed          
#>  2 2024           0211           All Other Citrus Trees
#>  3 2024           0028           Almonds               
#>  4 2024           0332           Annual Forage         
#>  5 2024           1191           Apiculture            
#>  6 2024           0184           Apple Trees           
#>  7 2024           0054           Apples                
#>  8 2024           0212           Avocado Trees         
#>  9 2024           0019           Avocados              
#> 10 2024           0255           Banana                
#> # ℹ 119 more rows
```
…
The `get_insurance_plan_codes` function works analogously to the `get_crop_codes` function and helps identiy valid names of insurance plans. 

``` r
# return all insurance plans avaliable in 2024
get_insurance_plan_codes(year = 2024)
#> # A tibble: 35 × 4
#>    commodity_year insurance_plan_code insurance_plan                                    insurance_plan_abbrv
#>    <chr>          <chr>               <chr>                                             <chr>               
#>  1 2024           90                  APH                                               APH                 
#>  2 2024           91                  APH Price Component                               APHPC               
#>  3 2024           43                  Aquaculture Dollar                                AQDOL               
#>  4 2024           47                  Actual Revenue History                            ARH                 
#>  5 2024           05                  Area Revenue Protection                           ARP                 
#>  6 2024           06                  Area Revenue Protection - Harvest Price Exclusion ARP - HPE           
#>  7 2024           04                  Area Yield Protection                             AYP                 
#>  8 2024           50                  Dollar Amount Of Insurance                        DO                  
#>  9 2024           83                  Dairy Revenue Protection                          DRP                 
#> 10 2024           88                  Enhanced Cov Opt - Rev Prot                       ECO-RP              
#> # ℹ 25 more rows
…
As was previously stated above, most arguments for the `get_sob_data` function are for filtering the returned data. One exception is the `group_by` argument which does not filter the data being returned, but instead alters the level of aggregation. Taking the above example that returns data for corn in 2022 and setting `group_by = "county"` will return the same underlying as above, but decomposed by county. 

``` r
get_sob_data(year = 2022, crop = "corn", group_by = "county")
#> # A tibble: 2,405 × 27
#>    commodity_year commodity_code commodity_name       state_code state_abbrv county_code county_name policies_sold policies_earning_prem policies_indemnified
#>             <dbl>          <int> <chr>                <chr>      <chr>       <chr>       <chr>               <dbl>                 <dbl>                <dbl>
#>  1           2022           9999 All Other Commoditi… 01         AL          999         All Other …             2                     2                    1
#>  2           2022           9999 All Other Commoditi… 01         AL          007         Bibb                    6                     0                    0
#>  3           2022           9999 All Other Commoditi… 01         AL          013         Butler                 25                    14                    5
#>  4           2022           9999 All Other Commoditi… 01         AL          023         Choctaw                12                     0                    0
#>  5           2022           9999 All Other Commoditi… 01         AL          025         Clarke                  3                     1                    0
#>  6           2022           9999 All Other Commoditi… 01         AL          027         Clay                    1                     0                    0
#>  7           2022           9999 All Other Commoditi… 01         AL          029         Cleburne                6                     4                    0
#>  8           2022           9999 All Other Commoditi… 01         AL          057         Fayette                16                     7                    3
#>  9           2022           9999 All Other Commoditi… 01         AL          075         Lamar                  10                     3                    3
#> 10           2022           9999 All Other Commoditi… 01         AL          093         Marion                 16                     7                    2
#> # ℹ 2,395 more rows
#> # ℹ 17 more variables: units_earning_prem <dbl>, units_indemnified <dbl>, quantity <dbl>, quantity_type <chr>, companion_endorsed_acres <dbl>,
#> #   liabilities <dbl>, total_prem <dbl>, subsidy <dbl>, indemnity <dbl>, efa_prem_discount <dbl>, addnl_subsidy <dbl>, state_subsidy <dbl>,
#> #   pccp_state_matching_amount <dbl>, organic_certified_subsidy_amount <dbl>, organic_transitional_subsidy_amount <dbl>, earn_prem_rate <dbl>,
#> #   loss_ratio <dbl>
```
…
